{
  "development": {
    "driver": "pg",
    "user": {"ENV": "POSTGRES_USER"},
    "password": {"ENV": "POSTGRES_PASSWORD"},
    "host": "localhost",
    "database": {"ENV": "POSTGRES_DB"}, 
    "port": "5432"
  },

  "production": {
    "driver": "pg",
    "user": {"ENV": "POSTGRES_USER"},
    "password": {"ENV": "POSTGRES_PASSWORD"},
    "host": "database_tribecoding",
    "database": {"ENV": "POSTGRES_DB"}, 
    "port": "5432"
  }
}